…
example:
```R
stock_data <- getWSE(tickers = c("dkr", "ccc", "peo"), 
                     ohlcv = "Close",
                     from = "2014-01-01",
                     to = "2016-01-01",
                     fin_metr = "p",
                     source = "stooq.pl",
                     freq = "monthly",
                     corpo_action = c("div", "split")) 

tibble::as_tibble(stock_data)

# A tibble: 24 x 4
   Date         dkr   ccc   peo
   <date>     <dbl> <dbl> <dbl>
 1 2014-01-31  7.46  119.  185.
 2 2014-02-28  8     132.  193.
 3 2014-03-31 10.0   131.  197.
 4 2014-04-30  9.76  127.  194.
 5 2014-05-31  9.00  120.  186.
 6 2014-06-30  8.00  113.  174.
 7 2014-07-31  5.80  110.  166.
 8 2014-08-31  8.00  119.  180.
 9 2014-09-30  7.70  128.  194.
10 2014-10-31  8.10  129.  176.
# ... with 14 more rows
```
…
example:

```R
df <- getWSE_fin(tickers = c("dkr", "ccc", "peo", "clc"),
                       fin_var = "mv", 
                       from = "2015-01-01",
                       freq = "daily")
                       
tibble::as_tibble(df)
                       
# A tibble: 1,325 x 5
   Data       dkr_mv ccc_mv peo_mv clc_mv
   <date>      <dbl>  <dbl>  <dbl>  <dbl>
 1 2015-01-02   5.32  4820. 33931.   6.35
 2 2015-01-05   5.32  4809. 33131.   6.51
 3 2015-01-07   5.30  5083. 33416.   6.51
 4 2015-01-08   4.89  5398. 34083.   6.35
 5 2015-01-09   4.39  5301. 33626.   6.18
 6 2015-01-12   4.33  5319. 33340.   6.01
 7 2015-01-13   4.27  5192. 34064.   5.01
 8 2015-01-14   4.27  5166. 33912.   5.18
 9 2015-01-15   4.21  5155. 32978.   5.18
10 2015-01-16   4.21  5148. 32769.   4.68
# ... with 1,315 more rows
```
…
